[
    {
    "id" : "1011",
    "name" : "Фляга військова пластикова з чохлом Mil-Tac 1л",
    "price" : 600,
    "color" : "black",
    "good_img" : "../../../public/assets/flask.png"
    },
    {
        "id" : "1012",
        "name" : "Аптечка медична Фарммедальянс",
        "price" : 740,
        "color" : "none",
        "good_img" : "../../../public/assets/first-and-kit-3.png"
    },
    {
        "id" : "1013",
        "name" : "Рюкзак Тактичний Mil-Tec® Large 36l",
        "price" : 1600,
        "color" : "green",
        "good_img" : "../../../public/assets/backpack-1.png"
    }
]